Dates and Times
…
```
## # A tibble: 1 x 1
##   `my_date <- ymd("2021-04-07")`
##   <date>                        
## 1 2021-04-07
```
]

.pull-right[
2. date-time

```
## # A tibble: 336,776 x 1
##    time_hour          
##    <dttm>             
##  1 2013-01-01 05:00:00
##  2 2013-01-01 05:00:00
##  3 2013-01-01 05:00:00
##  4 2013-01-01 05:00:00
##  5 2013-01-01 06:00:00
##  6 2013-01-01 05:00:00
##  7 2013-01-01 06:00:00
##  8 2013-01-01 06:00:00
##  9 2013-01-01 06:00:00
## 10 2013-01-01 06:00:00
## # … with 336,766 more rows
```
…
```
## [1] "2017-01-31 UTC"
```

---
#Creating date and date times

## From individual components

use *make_date()* and *make_datetime()*

```
## # A tibble: 336,776 x 6
##    flight  year month   day  hour minute
##     <int> <int> <int> <int> <dbl>  <dbl>
##  1   1545  2013     1     1     5     15
##  2   1714  2013     1     1     5     29
##  3   1141  2013     1     1     5     40
##  4    725  2013     1     1     5     45
##  5    461  2013     1     1     6      0
##  6   1696  2013     1     1     5     58
##  7    507  2013     1     1     6      0
##  8   5708  2013     1     1     6      0
##  9     79  2013     1     1     6      0
## 10    301  2013     1     1     6      0
## # … with 336,766 more rows
```
…
## From individual components

use *make_date()* and *make_datetime()*

```r
flights %>%
   select(flight, year, month, day, hour, minute) %>%
*  mutate(departure = make_date(year, month, day))%>%
   print(n=5)
```

```
## # A tibble: 336,776 x 7
##   flight  year month   day  hour minute departure 
##    <int> <int> <int> <int> <dbl>  <dbl> <date>    
## 1   1545  2013     1     1     5     15 2013-01-01
## 2   1714  2013     1     1     5     29 2013-01-01
## 3   1141  2013     1     1     5     40 2013-01-01
## 4    725  2013     1     1     5     45 2013-01-01
## 5    461  2013     1     1     6      0 2013-01-01
## # … with 336,771 more rows
```
…
